{
    "greetings_sad" : [

    ],

    "responses_humidity_high" : [

    ],

    "responses_humidity_low" : [

    ],

    "responses_temp_high" : [

    ],

    "responses_temp_low" : [

    ],

    "responses_light_high" : [

    ],

    "responses_light_low" : [

    ],

    "responses_moisture_high" : [

    ],

    "responses_moisture_low" : [

    ]
}