{
    "intents": [
        {   "tag": "goodbyes",
            "patterns": [
                "goodbye",
                "bye bye",
                "bye-bye",
                "good bye",
                "bye",
                "see you later",
                "quit",
                "stop",
                "farewell",
                "goodbye",
                "bye bye",
                "bye-bye",
                "good bye",
                "bye",
                "see you later",
                "quit",
                "stop",
                "farewell",
                "good day",
                "good day"

            ],
            "responses": [
                "bye bye",
                "good bye",
                "see you later"
            ]
        },
        {
            "tag": "greetings",
            "patterns": [
                "Hey",
                "Hello",
                "What's up",
                "Howdy",
                "Hi",
                "Plantbot",
                "Plant bot",
                "Plant Robot",
                "Hey plantbot",
                "Hello plantbot",
                "Hello plant Robot",
                "Hey plant Robot",
                "Hey Robot"
            ],
            "responses": [
                "Hello pal",
                "Hey, What can I do for you?",
                "Good day",
                "What's up",
                "How is it going?"
                
            ]
        },
        {
            "tag": "tell_joke",
            "patterns": [
                "tell me a joke",
                "I want to hear a joke",
                "Give me a joke",
                "make me laugh",
                "make me smile",
                "tell me something funny",
                "Can you tell me something funny",
                "Can you tell me a joke",
                "Say something funny",
                "I want to hear a joke",
                "funny",
                "joke",
                "Please tell me a joke",
                "Joke please",
                "Tell me another one",
                "Another joke"
            ],
            "responses": [
                ""
            ]
        },
        {
            "tag": "natlab_find_room",
            "patterns": [
                "Where does the movie play",
                "Where is this hall",
                "How do i get to room 8",
                "Can you point me the movie",
                "Where can i find this room",
                "Can you show me where the movie is",
                "Do you know where the movie is",
                "Where is this movie "
            ],
            "responses": [
                "You can find the iron man movie in room 8. It is located up the stairs and to the right",
                "The movie you're looking for in in room 10. Ask the receptionist for further directions"
            ]
        }
    ]
}